<svg xmlns="http://www.w3.org/2000/svg" width="20" height="20" viewBox="0 0 20 20">
  <g id="Group_5776" data-name="Group 5776" transform="translate(24 -8)">
    <g id="Group_5663" data-name="Group 5663" transform="translate(-693 -385)">
      <rect id="Rectangle_1465" data-name="Rectangle 1465" width="20" height="20" rx="2" transform="translate(669 393)" fill="#f8d7da"/>
    </g>
    <g id="Icon_feather-alert-triangle" data-name="Icon feather-alert-triangle" transform="translate(-21.341 9.226)">
      <path id="Path_2062" data-name="Path 2062" d="M6.675,4.825,2.461,11.859a.995.995,0,0,0,.851,1.492h8.427a.995.995,0,0,0,.851-1.492L8.376,4.825a.995.995,0,0,0-1.7,0Z" transform="translate(0)" fill="none" stroke="#cb4649" stroke-linecap="round" stroke-linejoin="round" stroke-width="1"/>
      <path id="Path_2063" data-name="Path 2063" d="M18,13.5v1.99" transform="translate(-10.474 -6.118)" fill="none" stroke="#cb4649" stroke-linecap="round" stroke-linejoin="round" stroke-width="1"/>
      <path id="Path_2064" data-name="Path 2064" d="M18,25.5h0" transform="translate(-10.474 -14.138)" fill="none" stroke="#cb4649" stroke-linecap="round" stroke-linejoin="round" stroke-width="1"/>
    </g>
  </g>
</svg>
