<svg xmlns="http://www.w3.org/2000/svg" width="14.164" height="8.17" viewBox="0 0 14.164 8.17">
  <path id="Icon_material-done-all" data-name="Icon material-done-all" d="M11.331,9.244l-.859-.859L6.61,12.247l.859.859Zm2.583-.859L7.469,14.831,4.922,12.29l-.859.859,3.406,3.406,7.311-7.311ZM.615,13.149l3.406,3.406L4.88,15.7,1.48,12.29Z" transform="translate(-0.615 -8.385)" fill="#5f6d88"/>
</svg>
